-------------------------------------------------------------------------------
Test set: queuearray.practice.jithyan.QueueArrayTest
-------------------------------------------------------------------------------
Tests run: 7, Failures: 0, Errors: 0, Skipped: 0, Time elapsed: 0.115 sec
